<?xml version="1.0"?>
<job>
  <recipeSet>
    <recipe id="1" status="Aborted" result="FAIL" checkpoint_file="checkpoint_198062.conf">
      <task name="abortfail" keepchanges="" id="1" status="Aborted" result="FAIL" start_time="2023-09-14T08:30:08-0400" end_time="2023-09-14T08:30:08-0400">
        <logs>
          <log path="recipes/1/tasks/1/logs/harness.log" filename="harness.log"/>
          <log path="recipes/1/tasks/1/logs/taskout.log" filename="taskout.log"/>
        </logs>
        <fetch url="https://gitlab.com/api/v4/projects/cki-project%2fdocumentation/repository/archive.zip#content/docs/test-maintainers/status-meaning/restraint/abortfail"/>
        <params>
          <param name="JOB_MEMBERS" value="localhost"/>
          <param name="RECIPE_MEMBERS" value="localhost"/>
        </params>
        <results>
          <result id="1694694609" path="abortfail" result="FAIL">
            <logs>
              <log path="recipes/1/tasks/1/results/1694694609/logs/avc.log" filename="avc.log"/>
            </logs>
          </result>
        </results>
      </task>
      <task name="pass" keepchanges="" id="2" status="Aborted" result="None" end_time="2023-09-14T08:30:08-0400">
        <logs/>
        <fetch url="https://gitlab.com/api/v4/projects/cki-project%2fdocumentation/repository/archive.zip#content/docs/test-maintainers/status-meaning/restraint/pass"/>
        <params>
          <param name="JOB_MEMBERS" value="localhost"/>
          <param name="RECIPE_MEMBERS" value="localhost"/>
        </params>
      </task>
    </recipe>
  </recipeSet>
</job>
