<?xml version="1.0" encoding="UTF-8" standalone="no"?>
<!-- Created with Inkscape (http://www.inkscape.org/) -->

<svg
   xmlns:dc="http://purl.org/dc/elements/1.1/"
   xmlns:cc="http://creativecommons.org/ns#"
   xmlns:rdf="http://www.w3.org/1999/02/22-rdf-syntax-ns#"
   xmlns:svg="http://www.w3.org/2000/svg"
   xmlns="http://www.w3.org/2000/svg"
   xmlns:xlink="http://www.w3.org/1999/xlink"
   xmlns:sodipodi="http://sodipodi.sourceforge.net/DTD/sodipodi-0.dtd"
   xmlns:inkscape="http://www.inkscape.org/namespaces/inkscape"
   width="16"
   height="16"
   viewBox="0 0 4.2333333 4.2333333"
   version="1.1"
   id="svg8"
   inkscape:export-filename="/home/mh21/git/cki/documentation/static/favicons/favicon-16x16.png"
   inkscape:export-xdpi="96"
   inkscape:export-ydpi="96"
   inkscape:version="0.92.5 (2060ec1f9f, 2020-04-08)"
   sodipodi:docname="favicon-16x16.svg">
  <defs
     id="defs2" />
  <sodipodi:namedview
     id="base"
     pagecolor="#ffffff"
     bordercolor="#666666"
     borderopacity="1.0"
     inkscape:pageopacity="0.0"
     inkscape:pageshadow="2"
     inkscape:zoom="45.333359"
     inkscape:cx="7.7022059"
     inkscape:cy="11.72553"
     inkscape:document-units="mm"
     inkscape:current-layer="layer1"
     showgrid="true"
     units="px"
     inkscape:snap-bbox="true"
     inkscape:bbox-nodes="true"
     inkscape:window-width="1600"
     inkscape:window-height="860"
     inkscape:window-x="0"
     inkscape:window-y="18"
     inkscape:window-maximized="0">
    <inkscape:grid
       type="xygrid"
       id="grid18" />
  </sodipodi:namedview>
  <metadata
     id="metadata5">
    <rdf:RDF>
      <cc:Work
         rdf:about="">
        <dc:format>image/svg+xml</dc:format>
        <dc:type
           rdf:resource="http://purl.org/dc/dcmitype/StillImage" />
        <dc:title></dc:title>
      </cc:Work>
    </rdf:RDF>
  </metadata>
  <g
     inkscape:label="Layer 1"
     inkscape:groupmode="layer"
     id="layer1"
     transform="translate(0,-292.76667)">
    <ellipse
       style="opacity:1;fill:#000000;fill-opacity:1;stroke-width:0.30238044"
       id="path20"
       cx="1.0583333"
       cy="293.95731"
       rx="1.0583333"
       ry="1.0583299" />
    <ellipse
       style="opacity:1;fill:#000000;fill-opacity:1;stroke-width:0.30238044"
       id="path20-3"
       cx="3.175"
       cy="293.95731"
       rx="1.0583333"
       ry="1.0583299" />
    <ellipse
       style="opacity:1;fill:#000000;fill-opacity:1;stroke-width:0.30238143"
       id="path37"
       cx="2.1166666"
       cy="295.80939"
       rx="1.0583334"
       ry="1.0583365" />
    <rect
       style="opacity:1;fill:#ffffff;fill-opacity:1;stroke-width:0.26458332"
       id="rect58-75-4"
       width="0.26458332"
       height="0.26458332"
       x="1.8520833"
       y="295.14792"
       inkscape:tile-cx="5.4239581"
       inkscape:tile-cy="-0.13230314"
       inkscape:tile-w="0.26458332"
       inkscape:tile-h="0.26458332"
       inkscape:tile-x0="5.2916665"
       inkscape:tile-y0="-0.2645948" />
    <use
       x="0"
       y="0"
       inkscape:tiled-clone-of="#rect58-75-4"
       xlink:href="#rect58-75-4"
       transform="translate(-8.2561238e-8,0.2645867)"
       id="use5456"
       width="100%"
       height="100%" />
    <use
       x="0"
       y="0"
       inkscape:tiled-clone-of="#rect58-75-4"
       xlink:href="#rect58-75-4"
       transform="translate(-8.2561238e-8,0.5291701)"
       id="use5458"
       width="100%"
       height="100%" />
    <use
       x="0"
       y="0"
       inkscape:tiled-clone-of="#rect58-75-4"
       xlink:href="#rect58-75-4"
       transform="translate(-8.2561238e-8,0.7937534)"
       id="use5460"
       width="100%"
       height="100%" />
    <use
       x="0"
       y="0"
       inkscape:tiled-clone-of="#rect58-75-4"
       xlink:href="#rect58-75-4"
       transform="translate(-8.2561238e-8,1.0583367)"
       id="use5462"
       width="100%"
       height="100%" />
    <use
       x="0"
       y="0"
       inkscape:tiled-clone-of="#rect58-75-4"
       xlink:href="#rect58-75-4"
       transform="translate(0.26458322,3.3966392e-6)"
       id="use5486"
       width="100%"
       height="100%" />
    <use
       x="0"
       y="0"
       inkscape:tiled-clone-of="#rect58-75-4"
       xlink:href="#rect58-75-4"
       transform="translate(0.26458322,0.2645867)"
       id="use5488"
       width="100%"
       height="100%" />
    <use
       x="0"
       y="0"
       inkscape:tiled-clone-of="#rect58-75-4"
       xlink:href="#rect58-75-4"
       transform="translate(0.26458322,0.5291701)"
       id="use5490"
       width="100%"
       height="100%" />
    <use
       x="0"
       y="0"
       inkscape:tiled-clone-of="#rect58-75-4"
       xlink:href="#rect58-75-4"
       transform="translate(0.26458322,0.7937534)"
       id="use5492"
       width="100%"
       height="100%" />
    <use
       x="0"
       y="0"
       inkscape:tiled-clone-of="#rect58-75-4"
       xlink:href="#rect58-75-4"
       transform="translate(0.26458322,1.0583367)"
       id="use5494"
       width="100%"
       height="100%" />
    <text
       xml:space="preserve"
       style="font-style:normal;font-variant:normal;font-weight:bold;font-stretch:normal;font-size:2.54473448px;line-height:1.25;font-family:sans-serif;-inkscape-font-specification:'sans-serif, Bold';font-variant-ligatures:normal;font-variant-caps:normal;font-variant-numeric:normal;font-feature-settings:normal;text-align:start;letter-spacing:0px;word-spacing:0px;writing-mode:lr-tb;text-anchor:start;fill:#000000;fill-opacity:1;stroke:none;stroke-width:0.28510985"
       x="0.13643157"
       y="317.16516"
       id="text5823"
       transform="scale(1.0765238,0.92891579)"><tspan
         sodipodi:role="line"
         id="tspan5821"
         x="0.13643157"
         y="317.16516"
         style="font-style:normal;font-variant:normal;font-weight:bold;font-stretch:normal;font-size:2.54473448px;font-family:sans-serif;-inkscape-font-specification:'sans-serif, Bold';font-variant-ligatures:normal;font-variant-caps:normal;font-variant-numeric:normal;font-feature-settings:normal;text-align:start;writing-mode:lr-tb;text-anchor:start;fill:#ffffff;stroke-width:0.28510985">c</tspan></text>
    <text
       xml:space="preserve"
       style="font-style:normal;font-weight:normal;font-size:2.4459219px;line-height:1.25;font-family:sans-serif;letter-spacing:0px;word-spacing:0px;fill:#000000;fill-opacity:1;stroke:none;stroke-width:0.22930518"
       x="2.4489074"
       y="297.83023"
       id="text5827"
       transform="scale(1.0109005,0.98921703)"><tspan
         sodipodi:role="line"
         id="tspan5825"
         x="2.4489074"
         y="297.83023"
         style="font-style:normal;font-variant:normal;font-weight:bold;font-stretch:normal;font-size:1.83444439px;font-family:sans-serif;-inkscape-font-specification:'sans-serif, Bold';fill:#ffffff;stroke-width:0.22930518;text-anchor:start;text-align:start;writing-mode:lr;font-variant-ligatures:normal;font-variant-caps:normal;font-variant-numeric:normal;font-feature-settings:normal">K</tspan></text>
  </g>
</svg>
